ST 558 Project 1
…
$CatCounts$SCH
# A tibble: 4 × 2
  SCH   weighted_count
  <fct>          <int>
1 0             358024
2 1            8549852
3 2            2353476
4 3             390643

$CatCounts$SCHL
# A tibble: 25 × 2
   SCHL  weighted_count
   <fct>          <int>
 1 0             358024
 2 1             348921
 3 10            173434
 4 11            208335
 5 12            207050
 6 13            213278
 7 14            274342
 8 15            167820
 9 16           1672849
10 17            344239
# ℹ 15 more rows
…
